simulation/qsim/autito.msim.vcd
$comment
	File created using the following command:
		vcd file autito.msim.vcd -direction
$end
$date
	Sat Nov 09 23:58:31 2024
$end
$version
	ModelSim Version 10.1d
$end
$timescale
	1ps
$end
$scope module SumaoResta_vlg_vec_tst $end
$var reg 1 ! clock $end
$var reg 1 " SorR $end
$var reg 1 # Z0 $end
$var reg 1 $ Z1 $end
$var reg 1 % Z2 $end
$var wire 1 & p0 $end
$var wire 1 ' p1 $end
$var wire 1 ( p2 $end
$var wire 1 ) p3 $end
$var wire 1 * sampler $end
$scope module i1 $end
$var wire 1 + gnd $end
$var wire 1 , vcc $end
$var wire 1 - unknown $end
$var tri1 1 . devclrn $end
$var tri1 1 / devpor $end
$var tri1 1 0 devoe $end
$var wire 1 1 Add0~1_combout $end
$var wire 1 2 Add0~2_combout $end
$var wire 1 3 Z1~input_o $end
$var wire 1 4 Z2~input_o $end
$var wire 1 5 a[0]~feeder_combout $end
$var wire 1 6 p0~output_o $end
$var wire 1 7 p1~output_o $end
$var wire 1 8 p2~output_o $end
$var wire 1 9 p3~output_o $end
$var wire 1 : clock~input_o $end
$var wire 1 ; clock~inputclkctrl_outclk $end
$var wire 1 < SorR~input_o $end
$var wire 1 = Z0~input_o $end
$var wire 1 > Add0~0_combout $end
$var wire 1 ? p[0]~5_cout $end
$var wire 1 @ p[0]~6_combout $end
$var wire 1 A a[1]~feeder_combout $end
$var wire 1 B p[0]~7 $end
$var wire 1 C p[1]~8_combout $end
$var wire 1 D a[2]~feeder_combout $end
$var wire 1 E p[1]~9 $end
$var wire 1 F p[2]~10_combout $end
$var wire 1 G a[3]~feeder_combout $end
$var wire 1 H p[2]~11 $end
$var wire 1 I p[3]~12_combout $end
$var wire 1 J a [3] $end
$var wire 1 K a [2] $end
$var wire 1 L a [1] $end
$var wire 1 M a [0] $end
$var wire 1 N p [3] $end
$var wire 1 O p [2] $end
$var wire 1 P p [1] $end
$var wire 1 Q p [0] $end
$upscope $end
$upscope $end
$enddefinitions $end
#0
$dumpvars
1!
0"
0#
0$
0%
0&
0'
0(
0)
x*
0+
1,
x-
1.
1/
10
01
02
03
04
05
06
07
08
09
1:
1;
0<
0=
0>
0?
0@
0A
1B
0C
0D
0E
0F
0G
1H
0I
0M
0L
0K
0J
0Q
0P
0O
0N
$end
#10000
0!
0:
0;
0*
#20000
1#
1!
1=
1:
1;
1*
1>
1@
#30000
0!
0:
0;
0*
#40000
0#
1!
0=
1:
1;
1*
0>
0@
1Q
15
16
1&
#50000
0!
0:
0;
0*
#60000
1#
1!
1=
1:
1;
1*
1>
1@
1M
0Q
0B
0@
05
06
0&
1C
#70000
0!
0:
0;
0*
#80000
0#
1!
0=
1:
1;
1*
0>
1B
1@
0C
0M
1P
0@
1A
17
1'
#90000
0!
0:
0;
0*
#100000
1#
1!
1=
1:
1;
1*
1>
1@
1L
0P
1C
0A
07
0'
#110000
0!
0:
0;
0*
#120000
0#
1!
0=
1:
1;
1*
0>
0@
0L
1P
1Q
0C
1A
15
17
16
1'
1&
#130000
0!
0:
0;
0*
#140000
1#
1!
1=
1:
1;
1*
1>
1@
1L
1M
0P
0Q
1C
0B
0@
0A
05
07
06
0'
0&
1E
0C
1F
#150000
0!
0:
0;
0*
#160000
0#
1!
0=
1:
1;
1*
0>
1B
1@
0E
1C
0F
0L
0M
1O
0C
0@
1D
18
1(
#170000
0!
0:
0;
0*
#180000
1#
1!
1=
1:
1;
1*
1>
1@
1K
0O
1F
0D
08
0(
#190000
0!
0:
0;
0*
#200000
1"
0#
1!
1<
0=
1:
1;
1*
1I
1?
12
11
0B
0@
0H
0F
1C
1E
0C
0I
1F
0K
1O
1Q
0F
1D
15
18
16
1(
1&
#210000
0!
0:
0;
0*
#220000
1#
1!
1=
1:
1;
1*
0>
1B
1@
0E
1C
1H
1F
1I
1K
1M
0O
0Q
0H
0F
0B
0@
0D
05
08
06
0(
0&
0I
1E
0C
1F
#230000
0!
0:
0;
0*
#240000
0#
1!
0=
1:
1;
1*
1>
1@
0K
0M
1O
0F
0@
1D
18
1(
#250000
0!
0:
0;
0*
#260000
1#
1!
1=
1:
1;
1*
0>
1B
1@
0E
1C
1H
1F
1I
1K
0O
0H
0F
0D
08
0(
0I
#270000
0!
0:
0;
0*
#280000
0#
1!
0=
1:
1;
1*
1>
0B
0@
1E
0C
1F
0K
1P
1Q
0F
1A
15
17
16
1'
1&
#290000
0!
0:
0;
0*
#300000
1#
1!
1=
1:
1;
1*
0>
1B
1@
0E
1C
1H
1F
1I
1L
1M
0P
0Q
1E
0C
0B
0@
0A
05
07
06
0'
0&
0H
0F
1C
0I
#310000
0!
0:
0;
0*
#320000
0#
1!
0=
1:
1;
1*
1>
1@
0L
0M
1P
0C
0@
1A
17
1'
#330000
0!
0:
0;
0*
#340000
1#
1!
1=
1:
1;
1*
0>
1B
1@
0E
1C
1H
1F
1I
1L
0P
1E
0C
0A
07
0'
0H
0F
0I
#350000
0!
0:
0;
0*
#360000
0#
1!
0=
1:
1;
1*
1>
0B
0@
1C
0L
1Q
0C
15
16
1&
#370000
0!
0:
0;
0*
#380000
1#
1!
1=
1:
1;
1*
0>
1B
1@
0E
1C
1H
1F
1I
1M
0Q
0B
0@
05
06
0&
1E
0C
0H
0F
0I
#390000
0!
0:
0;
0*
#400000
0"
0#
1!
0<
0=
1:
1;
1*
1I
0?
02
01
1B
1@
1H
1F
0E
1C
0C
0I
0F
0M
0@
#410000
0!
0:
0;
0*
#420000
1#
1!
1=
1:
1;
1*
1>
1@
#430000
0!
0:
0;
0*
#440000
0#
1!
0=
1:
1;
1*
0>
0@
1Q
15
16
1&
#450000
0!
0:
0;
0*
#460000
1#
1!
1=
1:
1;
1*
1>
1@
1M
0Q
0B
0@
05
06
0&
1C
#470000
0!
0:
0;
0*
#480000
0#
1!
0=
1:
1;
1*
0>
1B
1@
0C
0M
1P
0@
1A
17
1'
#490000
0!
0:
0;
0*
#500000
1#
1!
1=
1:
1;
1*
1>
1@
1L
0P
1C
0A
07
0'
#510000
0!
0:
0;
0*
#520000
0#
1!
0=
1:
1;
1*
0>
0@
0L
1P
1Q
0C
1A
15
17
16
1'
1&
#530000
0!
0:
0;
0*
#540000
1#
1!
1=
1:
1;
1*
1>
1@
1L
1M
0P
0Q
1C
0B
0@
0A
05
07
06
0'
0&
1E
0C
1F
#550000
0!
0:
0;
0*
#560000
0#
1!
0=
1:
1;
1*
0>
1B
1@
0E
1C
0F
0L
0M
1O
0C
0@
1D
18
1(
#570000
0!
0:
0;
0*
#580000
1#
1!
1=
1:
1;
1*
1>
1@
1K
0O
1F
0D
08
0(
#590000
0!
0:
0;
0*
#600000
1"
0#
1!
1<
0=
1:
1;
1*
1I
1?
12
11
0B
0@
0H
0F
1C
1E
0C
0I
1F
0K
1O
1Q
0F
1D
15
18
16
1(
1&
#610000
0!
0:
0;
0*
#620000
1#
1!
1=
1:
1;
1*
0>
1B
1@
0E
1C
1H
1F
1I
1K
1M
0O
0Q
0H
0F
0B
0@
0D
05
08
06
0(
0&
0I
1E
0C
1F
#630000
0!
0:
0;
0*
#640000
0#
1!
0=
1:
1;
1*
1>
1@
0K
0M
1O
0F
0@
1D
18
1(
#650000
0!
0:
0;
0*
#660000
1#
1!
1=
1:
1;
1*
0>
1B
1@
0E
1C
1H
1F
1I
1K
0O
0H
0F
0D
08
0(
0I
#670000
0!
0:
0;
0*
#680000
0#
1!
0=
1:
1;
1*
1>
0B
0@
1E
0C
1F
0K
1P
1Q
0F
1A
15
17
16
1'
1&
#690000
0!
0:
0;
0*
#700000
1#
1!
1=
1:
1;
1*
0>
1B
1@
0E
1C
1H
1F
1I
1L
1M
0P
0Q
1E
0C
0B
0@
0A
05
07
06
0'
0&
0H
0F
1C
0I
#710000
0!
0:
0;
0*
#720000
0#
1!
0=
1:
1;
1*
1>
1@
0L
0M
1P
0C
0@
1A
17
1'
#730000
0!
0:
0;
0*
#740000
1#
1!
1=
1:
1;
1*
0>
1B
1@
0E
1C
1H
1F
1I
1L
0P
1E
0C
0A
07
0'
0H
0F
0I
#750000
0!
0:
0;
0*
#760000
0#
1!
0=
1:
1;
1*
1>
0B
0@
1C
0L
1Q
0C
15
16
1&
#770000
0!
0:
0;
0*
#780000
1#
1!
1=
1:
1;
1*
0>
1B
1@
0E
1C
1H
1F
1I
1M
0Q
0B
0@
05
06
0&
1E
0C
0H
0F
0I
#790000
0!
0:
0;
0*
#800000
0"
0#
1!
0<
0=
1:
1;
1*
1I
0?
02
01
1B
1@
1H
1F
0E
1C
0C
0I
0F
0M
0@
#810000
0!
0:
0;
0*
#820000
1#
1!
1=
1:
1;
1*
1>
1@
#830000
0!
0:
0;
0*
#840000
0#
1!
0=
1:
1;
1*
0>
0@
1Q
15
16
1&
#850000
0!
0:
0;
0*
#860000
1#
1!
1=
1:
1;
1*
1>
1@
1M
0Q
0B
0@
05
06
0&
1C
#870000
0!
0:
0;
0*
#880000
0#
1!
0=
1:
1;
1*
0>
1B
1@
0C
0M
1P
0@
1A
17
1'
#890000
0!
0:
0;
0*
#900000
1#
1!
1=
1:
1;
1*
1>
1@
1L
0P
1C
0A
07
0'
#910000
0!
0:
0;
0*
#920000
0#
1!
0=
1:
1;
1*
0>
0@
0L
1P
1Q
0C
1A
15
17
16
1'
1&
#930000
0!
0:
0;
0*
#940000
1#
1!
1=
1:
1;
1*
1>
1@
1L
1M
0P
0Q
1C
0B
0@
0A
05
07
06
0'
0&
1E
0C
1F
#950000
0!
0:
0;
0*
#960000
0#
1!
0=
1:
1;
1*
0>
1B
1@
0E
1C
0F
0L
0M
1O
0C
0@
1D
18
1(
#970000
0!
0:
0;
0*
#980000
1#
1!
1=
1:
1;
1*
1>
1@
1K
0O
1F
0D
08
0(
#990000
0!
0:
0;
0*
